<?xml version="1.0" encoding="UTF-8"?>
<svg width="223px" height="71px" viewBox="0 0 223 71" version="1.1" xmlns="http://www.w3.org/2000/svg" xmlns:xlink="http://www.w3.org/1999/xlink">
    <title>glassdoor-ar21</title>
    <g id="Accordian-✦" stroke="none" stroke-width="1" fill="none" fill-rule="evenodd">
        <g id="glassdoor-ar21" transform="translate(0.8, 0.4)" fill="#0DAB40">
            <path d="M221.254019,29.4855305 C221.254019,29.2604502 221.028939,29.0353698 221.028939,29.0353698 C220.803859,28.8102894 220.128617,28.8102894 219.228296,28.8102894 C216.977492,28.8102894 214.951768,29.9356913 214.051447,31.7363344 L214.051447,29.4855305 C214.051447,29.2604502 213.826367,29.0353698 213.601286,29.0353698 L210.22508,29.0353698 C210,29.0353698 209.77492,29.2604502 209.77492,29.4855305 L209.77492,45.0160772 C209.77492,45.2411576 210,45.4662379 210.22508,45.4662379 L213.826367,45.4662379 C214.051447,45.4662379 214.276527,45.2411576 214.276527,45.0160772 L214.276527,38.0385852 C214.276527,34.8874598 216.527331,33.3118971 219.228296,33.3118971 C219.903537,33.3118971 220.578778,33.5369775 220.803859,33.5369775 C221.028939,33.5369775 221.254019,33.5369775 221.254019,33.0868167 L221.254019,29.4855305 L221.254019,29.4855305 Z M198.5209,28.8102894 C203.472669,28.8102894 207.299035,32.1864952 207.299035,37.3633441 C207.299035,42.5401929 203.472669,45.9163987 198.5209,45.9163987 C193.569132,45.9163987 189.742765,42.5401929 189.742765,37.3633441 C189.742765,32.1864952 193.569132,28.8102894 198.5209,28.8102894 L198.5209,28.8102894 Z M198.5209,41.6398714 C200.996785,41.6398714 202.797428,39.8392283 202.797428,37.3633441 C202.797428,34.6623794 200.996785,33.0868167 198.5209,33.0868167 C196.045016,33.0868167 194.244373,34.8874598 194.244373,37.3633441 C194.244373,39.8392283 196.045016,41.6398714 198.5209,41.6398714 Z M178.713826,28.8102894 C183.665595,28.8102894 187.491961,32.1864952 187.491961,37.3633441 C187.491961,42.5401929 183.665595,45.9163987 178.713826,45.9163987 C173.762058,45.9163987 169.935691,42.5401929 169.935691,37.3633441 C169.935691,32.1864952 173.762058,28.8102894 178.713826,28.8102894 L178.713826,28.8102894 Z M178.713826,41.6398714 C181.189711,41.6398714 182.990354,39.8392283 182.990354,37.3633441 C182.990354,34.6623794 181.189711,33.0868167 178.713826,33.0868167 C176.237942,33.0868167 174.437299,34.8874598 174.437299,37.3633441 C174.437299,40.0643087 176.237942,41.6398714 178.713826,41.6398714 Z M167.009646,22.733119 C167.234727,22.733119 167.459807,22.9581994 167.459807,23.1832797 L167.459807,45.2411576 C167.459807,45.4662379 167.234727,45.6913183 167.009646,45.6913183 L163.40836,45.6913183 C163.18328,45.6913183 162.958199,45.4662379 162.958199,45.2411576 L162.958199,43.2154341 C161.832797,45.0160772 160.032154,45.9163987 157.55627,45.9163987 C153.504823,45.9163987 150.128617,42.7652733 150.128617,37.3633441 C150.128617,31.7363344 153.504823,28.8102894 157.33119,28.8102894 C159.807074,28.8102894 161.607717,29.9356913 162.733119,31.511254 L162.733119,22.9581994 C162.733119,22.733119 162.958199,22.5080386 163.18328,22.5080386 L167.009646,22.733119 L167.009646,22.733119 Z M158.906752,41.6398714 C161.382637,41.6398714 163.18328,39.8392283 163.18328,37.3633441 C163.18328,34.6623794 161.382637,33.0868167 158.906752,33.0868167 C156.430868,33.0868167 154.630225,34.8874598 154.630225,37.3633441 C154.855305,40.0643087 156.655949,41.6398714 158.906752,41.6398714 Z M148.102894,40.5144695 C148.102894,44.1157556 145.401929,45.9163987 141.125402,45.9163987 C138.199357,45.9163987 135.498392,45.0160772 134.14791,43.4405145 C133.92283,43.2154341 133.92283,43.2154341 134.14791,42.9903537 L136.173633,40.2893891 C136.398714,40.0643087 136.623794,40.0643087 136.623794,40.2893891 C137.749196,41.414791 139.324759,42.0900322 141.350482,42.0900322 C142.475884,42.0900322 143.601286,41.8649518 143.601286,40.7395498 C143.601286,39.8392283 142.700965,39.6141479 140,39.1639871 C137.524116,38.7138264 134.598071,37.5884244 134.598071,33.9871383 C134.598071,30.6109325 137.299035,28.8102894 141.350482,28.8102894 C144.051447,28.8102894 146.07717,29.7106109 147.652733,31.0610932 C147.877814,31.2861736 147.877814,31.511254 147.652733,31.511254 L145.62701,33.9871383 C145.401929,34.2122186 145.176849,34.2122186 145.176849,33.9871383 C144.276527,33.0868167 142.700965,32.6366559 141.125402,32.6366559 C139.77492,32.6366559 139.099678,33.0868167 139.099678,33.7620579 C139.099678,34.6623794 140,34.6623794 142.926045,35.3376206 C145.62701,36.0128617 148.102894,37.1382637 148.102894,40.5144695 L148.102894,40.5144695 Z M131.672026,40.5144695 C131.672026,44.1157556 128.971061,45.9163987 124.694534,45.9163987 C121.768489,45.9163987 119.067524,45.0160772 117.717042,43.4405145 L117.717042,42.9903537 L119.742765,40.2893891 C119.967846,40.0643087 120.192926,40.0643087 120.192926,40.2893891 C121.318328,41.414791 122.893891,42.0900322 124.919614,42.0900322 C126.045016,42.0900322 127.170418,41.8649518 127.170418,40.7395498 C127.170418,39.8392283 126.270096,39.6141479 123.569132,39.1639871 C121.093248,38.7138264 118.167203,37.5884244 118.167203,33.9871383 C118.167203,30.6109325 120.643087,28.8102894 124.919614,28.8102894 C127.620579,28.8102894 129.646302,29.7106109 131.221865,31.0610932 C131.446945,31.2861736 131.446945,31.511254 131.221865,31.511254 L129.196141,33.9871383 C128.971061,34.2122186 128.745981,34.2122186 128.745981,33.9871383 C127.845659,33.0868167 126.270096,32.6366559 124.694534,32.6366559 C123.344051,32.6366559 122.66881,33.0868167 122.66881,33.7620579 C122.66881,34.6623794 123.569132,34.6623794 126.495177,35.3376206 C129.196141,36.0128617 131.672026,37.1382637 131.672026,40.5144695 L131.672026,40.5144695 Z M107.588424,28.8102894 C112.315113,28.8102894 114.565916,30.8360129 114.565916,35.3376206 L114.565916,45.0160772 C114.565916,45.2411576 114.340836,45.4662379 114.115756,45.4662379 L110.73955,45.4662379 C110.514469,45.4662379 110.289389,45.2411576 110.289389,45.0160772 L110.289389,43.2154341 C109.389068,44.5659164 107.813505,45.6913183 105.337621,45.6913183 C102.186495,45.6913183 99.9356913,43.6655949 99.9356913,40.5144695 C99.9356913,37.5884244 102.186495,35.7877814 105.11254,35.3376206 L109.614148,34.8874598 C110.289389,34.8874598 110.514469,34.6623794 110.514469,34.2122186 L110.514469,33.9871383 C110.514469,33.0868167 109.614148,32.4115756 107.588424,32.4115756 C106.012862,32.4115756 104.437299,32.8617363 103.762058,34.2122186 C103.762058,34.437299 103.536977,34.437299 103.311897,34.2122186 L100.836013,32.4115756 C100.610932,32.4115756 100.610932,32.1864952 100.836013,31.9614148 C101.511254,29.9356913 104.212219,28.8102894 107.588424,28.8102894 L107.588424,28.8102894 Z M110.289389,38.9389068 L110.289389,38.2636656 L106.237942,38.7138264 C104.88746,38.9389068 104.212219,39.6141479 104.212219,40.5144695 C104.212219,41.6398714 105.11254,42.3151125 106.463023,42.3151125 C108.938907,42.3151125 110.289389,40.7395498 110.289389,38.9389068 L110.289389,38.9389068 Z M97.0096463,22.9581994 L97.0096463,45.0160772 C97.0096463,45.2411576 96.7845659,45.4662379 96.5594855,45.4662379 L92.9581994,45.4662379 C92.733119,45.4662379 92.5080386,45.2411576 92.5080386,45.0160772 L92.5080386,22.9581994 C92.5080386,22.733119 92.733119,22.5080386 92.9581994,22.5080386 L96.5594855,22.5080386 L97.0096463,22.9581994 L97.0096463,22.9581994 Z M88.681672,29.2604502 C88.9067524,29.2604502 89.1318328,29.4855305 89.1318328,29.7106109 L89.1318328,44.5659164 C89.1318328,48.8424437 87.1061093,52.6688103 80.3536977,52.6688103 C77.2025723,52.6688103 75.1768489,51.7684887 73.3762058,50.4180064 C73.1511254,50.4180064 73.1511254,50.192926 73.3762058,49.7427653 L74.9517685,47.0418006 C74.9517685,46.8167203 75.4019293,46.8167203 75.4019293,47.0418006 C76.7524116,48.1672026 78.1028939,48.8424437 79.903537,48.8424437 C83.5048232,48.8424437 84.6302251,47.0418006 84.6302251,44.5659164 L84.6302251,43.4405145 C83.5048232,45.0160772 81.7041801,45.9163987 79.4533762,45.9163987 C75.1768489,45.9163987 71.8006431,42.9903537 71.8006431,37.5884244 C71.8006431,32.1864952 75.1768489,29.0353698 79.2282958,29.0353698 C81.7041801,29.0353698 83.5048232,30.1607717 84.4051447,31.7363344 L84.4051447,29.9356913 C84.4051447,29.7106109 84.6302251,29.4855305 84.8553055,29.4855305 L88.681672,29.2604502 L88.681672,29.2604502 Z M80.8038585,41.6398714 C83.2797428,41.6398714 85.0803859,39.8392283 85.0803859,37.3633441 C85.0803859,34.6623794 83.2797428,33.0868167 80.8038585,33.0868167 C78.3279743,33.0868167 76.5273312,34.8874598 76.5273312,37.3633441 C76.5273312,40.0643087 78.3279743,41.6398714 80.8038585,41.6398714" id="path14"></path>
            <path d="M40.0643087,60.096463 L0.225080386,60.096463 C0.225080386,65.7234727 4.7266881,70 10.1286174,70 L40.0643087,70 C45.4662379,70 49.9678457,65.4983923 49.9678457,60.096463 L49.9678457,19.1318328 C49.9678457,18.9067524 49.7427653,18.681672 49.5176849,18.681672 L40.2893891,18.681672 C40.0643087,18.681672 39.8392283,18.9067524 39.8392283,19.1318328 L39.8392283,60.096463 L40.0643087,60.096463 Z M40.0643087,0 C45.4662379,0 49.9678457,4.50160772 49.9678457,10.1286174 L10.1286174,10.1286174 L10.1286174,51.318328 C10.1286174,51.5434084 9.90353698,51.7684887 9.67845659,51.7684887 L0.450160772,51.7684887 C0.225080386,51.7684887 0,51.5434084 0,51.318328 L0,10.1286174 C0,4.50160772 4.50160772,0 9.90353698,0 L40.0643087,0" id="path16"></path>
        </g>
    </g>
</svg>